fv/prove_buggy_bmc/engine_0/trace.vcd
$version Generated by Yosys-SMTBMC $end
$timescale 1ns $end
$var integer 32 t smt_step $end
$var event 1 ! smt_clock $end
$scope module axi4lite_fv_top $end
$scope module _witness_ $end
$var wire 1 n0 anyinit_procdff_591 $end
$var wire 2 n1 anyinit_procdff_592 $end
$var wire 1 n2 anyinit_procdff_593 $end
$var wire 2 n3 anyinit_procdff_594 $end
$var wire 1 n4 anyinit_procdff_595 $end
$var wire 2 n5 anyinit_procdff_596 $end
$var wire 1 n6 anyinit_procdff_597 $end
$var wire 1 n7 anyinit_procdff_598 $end
$var wire 1 n8 anyinit_procdff_599 $end
$var wire 1 n9 anyinit_procdff_600 $end
$var wire 1 n10 anyinit_procdff_601 $end
$var wire 1 n11 anyinit_procdff_602 $end
$var wire 1 n12 anyinit_procdff_603 $end
$var wire 1 n13 anyinit_procdff_604 $end
$var wire 1 n14 anyinit_procdff_605 $end
$var wire 1 n15 anyinit_procdff_606 $end
$var wire 1 n16 anyinit_procdff_607 $end
$var wire 1 n17 anyinit_procdff_608 $end
$var wire 1 n18 anyinit_procdff_609 $end
$var wire 1 n19 anyinit_procdff_610 $end
$var wire 1 n20 anyinit_procdff_611 $end
$var wire 1 n21 anyinit_procdff_612 $end
$var wire 5 n22 anyinit_procdff_613 $end
$var wire 1 n23 anyinit_procdff_614 $end
$var wire 1 n24 anyinit_procdff_615 $end
$var wire 32 n25 anyinit_procdff_616 $end
$var wire 4 n26 anyinit_procdff_617 $end
$var wire 1 n27 anyinit_procdff_618 $end
$var wire 1 n28 anyinit_procdff_619 $end
$var wire 5 n29 anyinit_procdff_620 $end
$var wire 1 n30 anyinit_procdff_621 $end
$upscope $end
$var wire 1 n31 a01_EN $end
$var wire 1 n32 a02_EN $end
$var wire 1 n33 a03_EN $end
$var wire 1 n34 a04_EN $end
$var wire 1 n35 a05_EN $end
$var wire 1 n36 a06_EN $end
$var wire 1 n37 a07_EN $end
$var wire 1 n38 a08_EN $end
$var wire 1 n39 a09_EN $end
$var wire 1 n40 a10_EN $end
$var wire 1 n41 a11_EN $end
$var wire 1 n42 a12_EN $end
$var wire 1 n43 a13_EN $end
$var wire 1 n44 a14_EN $end
$var wire 1 n45 a14_inv_EN $end
$var wire 1 n46 a15_EN $end
$var wire 1 n47 aclk $end
$var wire 5 n48 araddr $end
$var wire 1 n49 aresetn $end
$var wire 1 n50 aresetn_d $end
$var wire 1 n51 aresetn_rose $end
$var wire 1 n52 arready $end
$var wire 1 n53 arvalid $end
$var wire 5 n54 awaddr $end
$var wire 1 n55 awready $end
$var wire 1 n56 awvalid $end
$var wire 1 n57 bready $end
$var wire 2 n58 bresp $end
$var wire 1 n59 bvalid $end
$var wire 1 n60 c_both_idle_EN $end
$var wire 1 n61 c_read_completes_EN $end
$var wire 1 n62 c_write_completes_EN $end
$scope module dut $end
$scope module _witness_ $end
$var wire 32 n63 anyseq_auto_setundef_cc_550_execute_946 $end
$var wire 3 n64 anyseq_auto_setundef_cc_550_execute_948 $end
$var wire 32 n65 anyseq_auto_setundef_cc_550_execute_950 $end
$var wire 3 n66 anyseq_auto_setundef_cc_550_execute_952 $end
$var wire 32 n67 anyseq_auto_setundef_cc_550_execute_954 $end
$var wire 3 n68 anyseq_auto_setundef_cc_550_execute_956 $end
$upscope $end
$var wire 1 n69 aclk $end
$var wire 5 n70 araddr $end
$var wire 1 n71 aresetn $end
$var wire 1 n72 arready $end
$var wire 1 n73 arvalid $end
$var wire 5 n74 awaddr $end
$var wire 1 n75 awready $end
$var wire 1 n76 awvalid $end
$var wire 1 n77 bready $end
$var wire 2 n78 bresp $end
$var wire 1 n79 bvalid $end
$var wire 32 n80 fv_mem_at_watch $end
$var wire 2 n81 fv_r_state $end
$var wire 5 n82 fv_raddr_q $end
$var wire 2 n83 fv_w_state $end
$var wire 5 n84 fv_waddr_q $end
$var wire 3 n85 fv_watch_idx $end
$var wire 32 n86 i $end
$var wire 32 n119 mem<0> $end
$var wire 32 n118 mem<4> $end
$var wire 2 n87 r_state $end
$var wire 5 n88 raddr_q $end
$var wire 32 n89 rdata $end
$var wire 1 n90 rready $end
$var wire 2 n91 rresp $end
$var wire 1 n92 rvalid $end
$var wire 2 n93 w_state $end
$var wire 5 n94 waddr_q $end
$var wire 32 n95 wdata $end
$var wire 1 n96 wready $end
$var wire 4 n97 wstrb $end
$var wire 1 n98 wvalid $end
$upscope $end
$var wire 32 n99 f_exp_rdata $end
$var wire 1 n100 f_exp_rdata_valid $end
$var wire 1 n101 f_past_valid $end
$var wire 32 n102 f_watch_data $end
$var wire 3 n103 f_watch_idx $end
$var wire 1 n104 f_watch_valid $end
$var wire 32 n105 fv_mem_at_watch $end
$var wire 2 n106 fv_r_state $end
$var wire 5 n107 fv_raddr_q $end
$var wire 2 n108 fv_w_state $end
$var wire 5 n109 fv_waddr_q $end
$var wire 32 n110 rdata $end
$var wire 1 n111 rready $end
$var wire 2 n112 rresp $end
$var wire 1 n113 rvalid $end
$var wire 32 n114 wdata $end
$var wire 1 n115 wready $end
$var wire 4 n116 wstrb $end
$var wire 1 n117 wvalid $end
$upscope $end
$enddefinitions $end
#0
1!
b00000000000000000000000000000000 t
b1 n47
b1 n69
b1 n0
b00 n1
b1 n2
b00 n3
b1 n4
b00 n5
b1 n6
b0 n7
b0 n8
b1 n9
b0 n10
b0 n11
b0 n12
b1 n13
b0 n14
b0 n15
b1 n16
b0 n17
b0 n18
b1 n19
b0 n20
b0 n21
b00001 n22
b0 n23
b0 n24
b00000000000000000000000000000000 n25
b0000 n26
b0 n27
b0 n28
b00001 n29
b1 n30
b0 n31
b0 n32
b0 n33
b0 n34
b0 n35
b0 n36
b0 n37
b0 n38
b0 n39
b0 n40
b0 n41
b0 n42
b0 n43
b0 n44
b0 n45
b0 n46
b00000 n48
b0 n49
b0 n50
b0 n51
b0 n52
b0 n53
b00000 n54
b0 n55
b0 n56
b0 n57
b00 n58
b0 n59
b0 n60
b0 n61
b0 n62
b00000000000000000000000000000000 n63
b010 n64
b00000000000000000000000000000000 n65
b000 n66
b00000000000000000000000000000000 n67
b100 n68
b00000 n70
b0 n71
b0 n72
b0 n73
b00000 n74
b0 n75
b0 n76
b0 n77
b00 n78
b0 n79
b00000000000000000000000000000000 n80
b00 n81
b00000 n82
b00 n83
b00000 n84
b000 n85
b00000000000000000000000000001000 n86
b00 n87
b00000 n88
b00000000000000000000000000000000 n89
b0 n90
b00 n91
b0 n92
b00 n93
b00000 n94
b00000000000000000000000000000000 n95
b0 n96
b0000 n97
b0 n98
b00000000000000000000000000000000 n99
b0 n100
b0 n101
b00000000000000000000000000000000 n102
b000 n103
b0 n104
b00000000000000000000000000000000 n105
b00 n106
b00000 n107
b00 n108
b00000 n109
b00000000000000000000000000000000 n110
b0 n111
b00 n112
b0 n113
b00000000000000000000000000000000 n114
b0 n115
b0000 n116
b0 n117
bxxxxxxxxxxxxxxxxxxxxxxxxxxxxxxxx n118
b00000000000000000000000000000000 n119
#5
b0 n47
b0 n69
#10
1!
b00000000000000000000000000000001 t
b1 n47
b1 n69
b0 n0
b00 n1
b0 n2
b00 n3
b0 n4
b00 n5
b0 n6
b0 n7
b0 n8
b0 n9
b0 n10
b0 n11
b0 n12
b0 n13
b0 n14
b0 n15
b0 n16
b0 n17
b0 n18
b0 n19
b0 n20
b0 n21
b00000 n22
b0 n23
b0 n24
b00000000000000000000000000000000 n25
b0000 n26
b0 n27
b0 n28
b00000 n29
b0 n30
b0 n31
b0 n32
b0 n33
b0 n34
b0 n35
b0 n36
b0 n37
b0 n38
b0 n39
b0 n40
b0 n41
b1 n42
b0 n43
b0 n44
b0 n45
b1 n46
b10000 n48
b1 n49
b0 n50
b1 n51
b0 n52
b0 n53
b00001 n54
b0 n55
b1 n56
b0 n57
b00 n58
b0 n59
b1 n60
b1 n61
b1 n62
b00000000000000000000000000000000 n63
b010 n64
b00000000000000000000000000000000 n65
b000 n66
b00000000000000000000000000000000 n67
b100 n68
b10000 n70
b1 n71
b0 n72
b0 n73
b00001 n74
b0 n75
b1 n76
b0 n77
b00 n78
b0 n79
b00000000000000000000000000000000 n80
b00 n81
b00000 n82
b00 n83
b00000 n84
b000 n85
b00000000000000000000000000001000 n86
b00 n87
b00000 n88
b00000000000000000000000000000000 n89
b1 n90
b00 n91
b0 n92
b00 n93
b00000 n94
b00000000000000000000000000000000 n95
b0 n96
b0000 n97
b0 n98
b00000000000000000000000000000000 n99
b0 n100
b1 n101
b00000000000000000000000000000000 n102
b000 n103
b0 n104
b00000000000000000000000000000000 n105
b00 n106
b00000 n107
b00 n108
b00000 n109
b00000000000000000000000000000000 n110
b1 n111
b00 n112
b0 n113
b00000000000000000000000000000000 n114
b0 n115
b0000 n116
b0 n117
bxxxxxxxxxxxxxxxxxxxxxxxxxxxxxxxx n118
b00000000000000000000000000000000 n119
#15
b0 n47
b0 n69
#20
1!
b00000000000000000000000000000010 t
b1 n47
b1 n69
b1 n0
b00 n1
b1 n2
b00 n3
b1 n4
b00 n5
b1 n6
b0 n7
b1 n8
b1 n9
b0 n10
b0 n11
b1 n12
b1 n13
b0 n14
b1 n15
b1 n16
b0 n17
b0 n18
b1 n19
b1 n20
b0 n21
b00001 n22
b0 n23
b0 n24
b00000000000000000000000000000000 n25
b0000 n26
b0 n27
b0 n28
b10000 n29
b1 n30
b0 n31
b0 n32
b0 n33
b0 n34
b1 n35
b0 n36
b0 n37
b0 n38
b0 n39
b0 n40
b0 n41
b1 n42
b0 n43
b0 n44
b0 n45
b1 n46
b00001 n48
b1 n49
b1 n50
b0 n51
b0 n52
b0 n53
b00001 n54
b1 n55
b1 n56
b0 n57
b00 n58
b0 n59
b1 n60
b1 n61
b1 n62
b00000000000000000000000000000000 n63
b010 n64
b00000000000000000000000000000000 n65
b100 n66
b00000000000000000000000000000000 n67
b100 n68
b00001 n70
b1 n71
b0 n72
b0 n73
b00001 n74
b1 n75
b1 n76
b0 n77
b00 n78
b0 n79
b00000000000000000000000000000000 n80
b00 n81
b00000 n82
b01 n83
b00001 n84
b000 n85
b00000000000000000000000000001000 n86
b00 n87
b00000 n88
b00000000000000000000000000000000 n89
b0 n90
b00 n91
b0 n92
b01 n93
b00001 n94
b00001100000000000000000001000010 n95
b1 n96
b0000 n97
b1 n98
b00000000000000000000000000000000 n99
b0 n100
b1 n101
b00000000000000000000000000000000 n102
b000 n103
b0 n104
b00000000000000000000000000000000 n105
b00 n106
b00000 n107
b01 n108
b00001 n109
b00000000000000000000000000000000 n110
b0 n111
b00 n112
b0 n113
b00001100000000000000000001000010 n114
b1 n115
b0000 n116
b1 n117
bxxxxxxxxxxxxxxxxxxxxxxxxxxxxxxxx n118
b00000000000000000000000000000000 n119
#25
b0 n47
b0 n69
#30
1!
b00000000000000000000000000000011 t
b1 n47
b1 n69
b1 n0
b00 n1
b1 n2
b00 n3
b1 n4
b01 n5
b1 n6
b0 n7
b0 n8
b1 n9
b0 n10
b0 n11
b0 n12
b1 n13
b0 n14
b0 n15
b1 n16
b0 n17
b0 n18
b1 n19
b1 n20
b1 n21
b00001 n22
b1 n23
b1 n24
b00001100000000000000000001000010 n25
b0000 n26
b0 n27
b0 n28
b00001 n29
b1 n30
b0 n31
b0 n32
b0 n33
b0 n34
b0 n35
b1 n36
b0 n37
b0 n38
b0 n39
b1 n40
b0 n41
b1 n42
b0 n43
b0 n44
b1 n45
b1 n46
b00001 n48
b1 n49
b1 n50
b0 n51
b0 n52
b0 n53
b00000 n54
b0 n55
b0 n56
b0 n57
b00 n58
b1 n59
b1 n60
b1 n61
b1 n62
b00001100000000000000000001000010 n63
b010 n64
b00001100000000000000000001000010 n65
b000 n66
b00000000000000000000000000000000 n67
b000 n68
b00001 n70
b1 n71
b0 n72
b0 n73
b00000 n74
b0 n75
b0 n76
b0 n77
b00 n78
b1 n79
b00001100000000000000000001000010 n80
b00 n81
b00000 n82
b10 n83
b00001 n84
b000 n85
b00000000000000000000000000001000 n86
b00 n87
b00000 n88
b00000000000000000000000000000000 n89
b0 n90
b00 n91
b0 n92
b10 n93
b00001 n94
b00001100000000000000000001000010 n95
b0 n96
b0000 n97
b0 n98
b00000000000000000000000000000000 n99
b0 n100
b1 n101
b00001100000000000000000001000010 n102
b000 n103
b1 n104
b00001100000000000000000001000010 n105
b00 n106
b00000 n107
b10 n108
b00001 n109
b00000000000000000000000000000000 n110
b0 n111
b00 n112
b0 n113
b00001100000000000000000001000010 n114
b0 n115
b0000 n116
b0 n117
bxxxxxxxxxxxxxxxxxxxxxxxxxxxxxxxx n118
b00001100000000000000000001000010 n119
#35
b0 n47
b0 n69
#40
1!
b00000000000000000000000000000100 t
b1 n47
b1 n69
b1 n0
b00 n1
b1 n2
b00 n3
b1 n4
b10 n5
b1 n6
b0 n7
b0 n8
b1 n9
b1 n10
b0 n11
b0 n12
b1 n13
b0 n14
b0 n15
b1 n16
b1 n17
b0 n18
b1 n19
b0 n20
b0 n21
b00000 n22
b0 n23
b0 n24
b00001100000000000000000001000010 n25
b0000 n26
b0 n27
b0 n28
b00001 n29
b1 n30
b1 n31
b0 n32
b0 n33
b0 n34
b0 n35
b0 n36
b0 n37
b0 n38
b0 n39
b0 n40
b0 n41
b1 n42
b0 n43
b0 n44
b1 n45
b1 n46
b00001 n48
b1 n49
b1 n50
b0 n51
b0 n52
b1 n53
b01000 n54
b0 n55
b0 n56
b0 n57
b00 n58
b0 n59
b1 n60
b1 n61
b1 n62
b00000000000000000000000000000000 n63
b010 n64
b00000000000000000000000000000010 n65
b000 n66
b00000000000000000000000000000000 n67
b001 n68
b00001 n70
b1 n71
b0 n72
b1 n73
b01000 n74
b0 n75
b0 n76
b0 n77
b00 n78
b0 n79
b00001100000000000000000001000010 n80
b00 n81
b00000 n82
b00 n83
b00001 n84
b000 n85
b00000000000000000000000000001000 n86
b00 n87
b00000 n88
b00000000000000000000000000000000 n89
b1 n90
b00 n91
b0 n92
b00 n93
b00001 n94
b00000000000000000000000000001000 n95
b0 n96
b0000 n97
b0 n98
b00000000000000000000000000000000 n99
b0 n100
b1 n101
b00001100000000000000000001000010 n102
b000 n103
b1 n104
b00001100000000000000000001000010 n105
b00 n106
b00000 n107
b00 n108
b00001 n109
b00000000000000000000000000000000 n110
b1 n111
b00 n112
b0 n113
b00000000000000000000000000001000 n114
b0 n115
b0000 n116
b0 n117
bxxxxxxxxxxxxxxxxxxxxxxxxxxxxxxxx n118
b00001100000000000000000001000010 n119
#45
b0 n47
b0 n69
#50
1!
b00000000000000000000000000000101 t
b1 n47
b1 n69
b1 n0
b00 n1
b1 n2
b00 n3
b1 n4
b00 n5
b1 n6
b0 n7
b1 n8
b1 n9
b0 n10
b0 n11
b0 n12
b1 n13
b0 n14
b1 n15
b1 n16
b0 n17
b0 n18
b1 n19
b0 n20
b0 n21
b01000 n22
b0 n23
b0 n24
b00000000000000000000000000001000 n25
b0000 n26
b1 n27
b0 n28
b00001 n29
b1 n30
b0 n31
b0 n32
b0 n33
b0 n34
b0 n35
b0 n36
b0 n37
b0 n38
b0 n39
b0 n40
b0 n41
b1 n42
b0 n43
b0 n44
b1 n45
b1 n46
b00001 n48
b1 n49
b1 n50
b0 n51
b1 n52
b1 n53
b00000 n54
b0 n55
b0 n56
b0 n57
b00 n58
b0 n59
b1 n60
b1 n61
b1 n62
b00000000000000000000000000000000 n63
b010 n64
b00000000000000000000000000000000 n65
b000 n66
b00000000000000000000000000000000 n67
b100 n68
b00001 n70
b1 n71
b1 n72
b1 n73
b00000 n74
b0 n75
b0 n76
b0 n77
b00 n78
b0 n79
b00001100000000000000000001000010 n80
b01 n81
b00001 n82
b00 n83
b00001 n84
b000 n85
b00000000000000000000000000001000 n86
b01 n87
b00001 n88
b00000000000000000000000000000000 n89
b0 n90
b00 n91
b0 n92
b00 n93
b00001 n94
b00000000000000000000000000000000 n95
b0 n96
b0100 n97
b0 n98
b00000000000000000000000000000000 n99
b0 n100
b1 n101
b00001100000000000000000001000010 n102
b000 n103
b1 n104
b00001100000000000000000001000010 n105
b01 n106
b00001 n107
b00 n108
b00001 n109
b00000000000000000000000000000000 n110
b0 n111
b00 n112
b0 n113
b00000000000000000000000000000000 n114
b0 n115
b0100 n116
b0 n117
bxxxxxxxxxxxxxxxxxxxxxxxxxxxxxxxx n118
b00001100000000000000000001000010 n119
#55
b0 n47
b0 n69
#60
1!
b00000000000000000000000000000110 t
b1 n47
b1 n69
